<?xml version="1.0" encoding="utf-8"?>
<!-- Generator: Adobe Illustrator 16.0.0, SVG Export Plug-In . SVG Version: 6.00 Build 0)  -->
<!DOCTYPE svg PUBLIC "-//W3C//DTD SVG 1.1//EN" "http://www.w3.org/Graphics/SVG/1.1/DTD/svg11.dtd">
<svg version="1.1" xmlns:sketch="http://www.bohemiancoding.com/sketch/ns"
	 xmlns="http://www.w3.org/2000/svg" xmlns:xlink="http://www.w3.org/1999/xlink" x="0px" y="0px" width="36px" height="36px"
	 viewBox="0 0 36 36" enable-background="new 0 0 36 36" xml:space="preserve">
<g>
	<path fill="#5ACC3A" d="M3.5,24.686c0,1.092,0.792,1.916,1.843,1.916h25.315c1.051,0,1.843-0.824,1.843-1.916V6.6h-29L3.5,24.686
		L3.5,24.686z M4.5,7.6h27v17.085c0,0.529-0.354,0.914-0.843,0.914H5.342c-0.488,0-0.843-0.385-0.843-0.914L4.5,7.6L4.5,7.6z"/>
	<path fill="#5ACC3A" d="M35.493,3.804c0.057-0.848-0.234-1.661-0.821-2.288C34.061,0.861,33.212,0.5,32.286,0.5H3.807
		C1.983,0.5,0.5,1.967,0.5,3.771V26.23c0,1.804,1.484,3.271,3.308,3.271h28.377c1.824,0,3.31-1.467,3.31-3.271L35.493,3.804z
		 M34.494,26.229c0,1.252-1.035,2.271-2.309,2.271H3.807c-1.272,0-2.308-1.02-2.308-2.271V3.771C1.5,2.519,2.535,1.5,3.807,1.5
		h28.479c0.646,0,1.233,0.249,1.655,0.699c0.396,0.423,0.592,0.969,0.553,1.571V26.229z"/>
	<path fill="#5ACC3A" d="M22.355,17.136c0,0,0.508,0.097,1.014,0.58c0.508,0.484,0.609,0.97,0.609,0.97s0.102-0.484,0.606-0.97
		c0.507-0.483,1.015-0.58,1.015-0.58s-0.508-0.097-1.015-0.58c-0.506-0.484-0.606-0.968-0.606-0.968s-0.103,0.483-0.609,0.968
		C22.863,17.039,22.355,17.136,22.355,17.136z"/>
	<path fill="#5ACC3A" d="M21.141,17.909c0,0-0.102,0.388-0.508,0.678c-0.404,0.388-0.709,0.483-0.709,0.483s0.406,0.098,0.709,0.484
		c0.406,0.387,0.508,0.678,0.508,0.678s0.103-0.389,0.506-0.678c0.406-0.388,0.711-0.484,0.711-0.484s-0.405-0.096-0.711-0.483
		C21.242,18.297,21.141,17.909,21.141,17.909z"/>
	<path fill="#5ACC3A" d="M23.369,13.652l-1.723-1.645L10.6,22.557l1.723,1.645L23.369,13.652z M21.545,13.265l0.609,0.581
		l-2.838,2.71l-0.609-0.581L21.545,13.265z"/>
	<path fill="#5ACC3A" d="M17.39,14.039c0,0,0.203-0.678,1.014-1.452s1.52-0.968,1.52-0.968s-0.709-0.194-1.52-0.968
		S17.39,9.2,17.39,9.2s-0.203,0.677-1.014,1.452c-0.811,0.774-1.52,0.968-1.52,0.968s0.709,0.193,1.52,0.968
		C17.188,13.361,17.39,14.039,17.39,14.039z"/>
</g>
</svg>
