<?xml version="1.0" encoding="UTF-8" standalone="no"?>
<svg width="309px" height="116px" viewBox="0 0 309 116" version="1.1" xmlns="http://www.w3.org/2000/svg" xmlns:xlink="http://www.w3.org/1999/xlink" xmlns:sketch="http://www.bohemiancoding.com/sketch/ns">
    <!-- Generator: Sketch 3.2.2 (9983) - http://www.bohemiancoding.com/sketch -->
    <title>logo 2</title>
    <desc>Created with Sketch.</desc>
    <defs></defs>
    <g id="Page-1" stroke="none" stroke-width="1" fill="none" fill-rule="evenodd" sketch:type="MSPage">
        <g id="Artboard-1" sketch:type="MSArtboardGroup" transform="translate(-68.000000, -69.000000)">
            <g id="logo-2" sketch:type="MSLayerGroup" transform="translate(68.000000, 69.000000)">
                <path d="M0,29.0010083 L0,32.4465409 L0,83.5534591 L0,86.9989917 L2.97587831,88.73561 L46.5812052,114.182151 L49.6126624,115.951203 L52.6403792,114.175757 L96.0350523,88.7292158 L99,86.990577 L99,83.5534591 L99,32.4465409 L99,29.009423 L96.0350523,27.2707842 L52.6403792,1.82424331 L49.6126624,0.048796857 L46.5812052,1.8178491 L2.97587831,27.26439 L0,29.0010083 M49.4945349,14 L87.0174689,36 L87.0174705,80.1060965 L49.6211936,102.062201 L11.9999999,80.1060944 L12,35.5 L49.4945349,14" id="Path" fill="#5ACC3A" sketch:type="MSShapeGroup"></path>
                <path d="M173.75,84 L173.75,60.872 L148.172,60.872 L148.172,84 L142.782,84 L142.782,36.274 L148.27,36.274 L148.27,56.364 L173.75,56.364 L173.75,36.274 L179.238,36.274 L179.238,84 L173.75,84 Z M209.912,39.606 C207.363987,39.606 205.208009,40.0959951 203.444,41.076 C201.679991,42.0560049 200.259005,43.3626585 199.181,44.996 C198.102995,46.6293415 197.286336,48.5076561 196.731,50.631 C196.175664,52.754344 195.800001,54.9593219 195.604,57.246 L222.848,57.246 C222.848,54.6979873 222.635669,52.3460108 222.211,50.19 C221.786331,48.0339892 221.084005,46.1720078 220.104,44.604 C219.123995,43.0359922 217.801008,41.8110044 216.135,40.929 C214.468992,40.0469956 212.394679,39.606 209.912,39.606 L209.912,39.606 Z M209.814,35.49 C212.884682,35.49 215.481656,35.9309956 217.605,36.813 C219.728344,37.6950044 221.475993,38.8383263 222.848,40.243 C224.220007,41.6476737 225.26533,43.2319912 225.984,44.996 C226.70267,46.7600088 227.225332,48.4749917 227.552,50.141 C227.878668,51.8070083 228.058333,53.3749927 228.091,54.845 C228.123667,56.3150074 228.14,57.4746624 228.14,58.324 L228.14,61.166 L195.506,61.166 C195.506,63.7140127 195.718331,66.1313219 196.143,68.418 C196.567669,70.7046781 197.335328,72.7299912 198.446,74.494 C199.556672,76.2580088 201.059324,77.6626614 202.954,78.708 C204.848676,79.7533386 207.265985,80.276 210.206,80.276 C213.080681,80.276 215.644989,79.9820029 217.899,79.394 C220.153011,78.8059971 222.651986,77.8913395 225.396,76.65 L226.866,80.374 C224.121986,81.8766742 221.41068,82.9709966 218.732,83.657 C216.05332,84.3430034 213.146016,84.686 210.01,84.686 C205.959313,84.686 202.627346,84.0326732 200.014,82.726 C197.400654,81.4193268 195.342674,79.6716776 193.84,77.483 C192.337326,75.2943224 191.292003,72.7300147 190.704,69.79 C190.115997,66.8499853 189.822,63.7140167 189.822,60.382 C189.822,59.0753268 189.903666,57.5400088 190.067,55.776 C190.230334,54.0119912 190.573331,52.2153425 191.096,50.386 C191.618669,48.5566575 192.337329,46.7436757 193.252,44.947 C194.166671,43.1503244 195.358993,41.5496737 196.829,40.145 C198.299007,38.7403263 200.095656,37.6133376 202.219,36.764 C204.342344,35.9146624 206.873985,35.49 209.814,35.49 L209.814,35.49 Z M238.43,84 L238.43,36.078 L243.722,36.078 L243.722,56.56 L254.306,56.56 C255.220671,56.56 256.118996,56.462001 257.001,56.266 C257.883004,56.069999 258.732329,55.7106693 259.549,55.188 C260.365671,54.6653307 261.116997,53.9466712 261.803,53.032 C262.489003,52.1173288 263.093331,50.9086742 263.616,49.406 C263.877335,48.6219961 264.203998,47.6420059 264.596,46.466 C264.988002,45.2899941 265.396331,44.0650064 265.821,42.791 C266.245669,41.5169936 266.670331,40.2756727 267.095,39.067 C267.519669,37.8583273 267.862665,36.8946703 268.124,36.176 L273.22,36.176 C272.958665,36.8946703 272.632002,37.8583273 272.24,39.067 C271.847998,40.2756727 271.456002,41.5169936 271.064,42.791 C270.671998,44.0650064 270.280002,45.3063273 269.888,46.515 C269.495998,47.7236727 269.169335,48.6873297 268.908,49.406 C268.18933,51.6273444 267.307339,53.5219922 266.262,55.09 C265.216661,56.6580078 263.844675,57.8013297 262.146,58.52 C264.432678,59.1733366 266.147661,60.267659 267.291,61.803 C268.434339,63.338341 269.36533,65.2166556 270.084,67.438 L275.376,84 L270.084,84 C269.757332,83.1506624 269.365336,82.0236737 268.908,80.619 C268.450664,79.2143263 267.977002,77.7280078 267.487,76.16 C266.996998,74.5919922 266.507002,73.0893405 266.017,71.652 C265.526998,70.2146595 265.151335,69.0713376 264.89,68.222 L264.89,68.32 C263.779328,65.1839843 262.342009,63.1260049 260.578,62.146 C258.813991,61.1659951 256.886677,60.676 254.796,60.676 L243.722,60.676 L243.722,84 L238.43,84 Z" id="нек" fill="#000000" sketch:type="MSShapeGroup" transform="translate(210.157000, 60.088000) rotate(0.074484) translate(-210.157000, -60.088000) "></path>
                <path d="M303.595,33.88 L303.595,44 L299.305,44 C299.305,42.3133249 299.314167,40.6266751 299.3325,38.94 C299.350833,37.2533249 299.36,35.5666751 299.36,33.88 L281.76,33.88 L281.76,30.69 L298.92,7.48 L303.595,7.48 L303.595,30.58 L308.93,30.58 L308.93,33.88 L303.595,33.88 Z M299.085,12.76 C296.884989,15.7300149 294.721677,18.6999852 292.595,21.67 C290.468323,24.6400149 288.268345,27.6099852 285.995,30.58 L299.415,30.58 L299.415,12.76 L299.085,12.76 Z" id="4" fill="#000000" sketch:type="MSShapeGroup" transform="translate(296.225000, 25.740000) rotate(0.074484) translate(-296.225000, -25.740000) "></path>
            </g>
        </g>
    </g>
</svg>