<?xml version="1.0" encoding="utf-8"?>
<!-- Generator: Adobe Illustrator 16.0.0, SVG Export Plug-In . SVG Version: 6.00 Build 0)  -->
<!DOCTYPE svg PUBLIC "-//W3C//DTD SVG 1.1//EN" "http://www.w3.org/Graphics/SVG/1.1/DTD/svg11.dtd">
<svg version="1.1" id="Layer_1" xmlns="http://www.w3.org/2000/svg" xmlns:xlink="http://www.w3.org/1999/xlink" x="0px" y="0px"
	 width="174.18px" height="34.25px" viewBox="0 0 174.18 34.25" enable-background="new 0 0 174.18 34.25" xml:space="preserve">
<g>
	<path fill-rule="evenodd" clip-rule="evenodd" fill="#B51715" d="M9.14,14.74L3.5,8.45H3.43v6.29H0V0.16h3.43V6.2h0.05l5.46-6h3.98
		L6.37,7.17l6.95,7.57H9.14L9.14,14.74z M15.81,7.61c0,2.26,0.94,4.23,2.64,5.58c1.46,1.15,3.47,1.77,5.92,1.77
		c2.6,0,4.71-0.82,6.24-2.17c1.51-1.33,2.32-3.25,2.32-5.36c0-2.04-0.7-3.85-2.09-5.18C29.35,0.84,27.09,0,24.37,0
		c-2.54,0-4.66,0.82-6.17,2.17C16.66,3.54,15.81,5.47,15.81,7.61L15.81,7.61z M29.28,7.5c0,3.19-2.09,5.03-4.91,5.03
		c-2.87,0-4.96-1.84-4.96-5.03c0-3.18,2.09-5.02,4.96-5.02C27.24,2.48,29.28,4.36,29.28,7.5L29.28,7.5z M47.6,7.41h-0.75V2.68h0.73
		c2.02,0,3,1.02,3,2.32C50.57,6.51,49.64,7.41,47.6,7.41L47.6,7.41z M42.65,7.41c-2.04,0-2.97-0.91-2.97-2.41
		c0-1.31,0.98-2.32,3-2.32h0.72v4.73H42.65L42.65,7.41L42.65,7.41z M47.93,0.16h-5.61c-3.65,0-6.1,1.62-6.1,4.73
		c0,1.88,1.61,4.83,6.55,4.83h0.62v5.02h3.45V9.72h0.62c4.94,0,6.55-2.94,6.55-4.83C54.02,1.77,51.58,0.16,47.93,0.16L47.93,0.16z
		 M59.59,14.74V0.16h10.25l-0.91,2.48h-5.89v3.41h5.92v2.5h-5.92v3.72h6.77v2.48H59.59L59.59,14.74z M89.53,14.67V6.69
		c0-0.53,0-1.05,0.05-1.55h-0.05c-0.17,0.39-0.75,1.14-1.02,1.51l-3.03,4.1h-1.57l-3.38-4.21c-0.32-0.4-0.72-0.83-1.05-1.4h-0.05
		c0.02,0.55,0.02,1.05,0.02,1.47v8.07h-3.38V0.22h3.14l4.3,5.42c0.47,0.61,0.85,1.1,1.19,1.62h0.02c0.28-0.5,0.62-1.05,1.12-1.71
		l3.93-5.33h3.14v14.46H89.53L89.53,14.67z M113.06,14.67l-6.69-14.52h-2.59l-6.42,14.52h3.36l1.52-3.53h5.57l1.59,3.53H113.06
		L113.06,14.67z M106.77,8.73h-3.56l1.81-4.59h0.02C105.16,4.61,106.77,8.73,106.77,8.73L106.77,8.73z M128.91,14.67V8.62h-7.58
		v6.06h-3.41V0.22h3.41v5.81h7.58V0.22h3.41v14.46H128.91L128.91,14.67z M139.46,14.67V0.22h3.38v7.37c0,0.61,0,1.56-0.05,2.24h0.05
		c0.45-0.59,0.9-1.16,1.54-1.89l6.87-7.72h3.43v14.46h-3.38V6.75c0-0.66,0-1.53,0.05-2.02h-0.05c-0.5,0.64-0.95,1.21-1.57,1.91
		l-7.11,8.03H139.46L139.46,14.67z M164.95,14.67c2.49-3.75,3.48-5.37,4.08-5.57h1.27v5.57h3.41V0.22h-4.77
		c-4.38,0-5.97,1.91-5.97,4.14c0,1.89,1.47,3.16,2.98,3.75v0.02c-0.82,0.42-2.41,2.85-4.88,6.54H164.95L164.95,14.67z M168.86,2.72
		h1.44v4.19h-1.44c-1.44,0-2.51-0.97-2.51-2.21C166.34,3.57,167.24,2.72,168.86,2.72L168.86,2.72z M0,20.22h174.18v2.6H0V20.22
		L0,20.22z M46.56,34.25c-2.13,0-3.62-1.38-3.62-3.54c0-2.23,1.65-3.71,3.84-3.71c0.77,0,1.49,0.13,2.01,0.46l-0.03,1.28
		c-0.49-0.33-1.12-0.55-1.83-0.55c-1.46,0-2.41,1.05-2.41,2.45c0,1.42,0.97,2.4,2.31,2.4c0.76,0,1.37-0.26,1.8-0.54l0.42,1.05
		C48.37,34,47.46,34.25,46.56,34.25L46.56,34.25z M58.35,30.64c0-1.12-0.38-2.04-1.06-2.69c-0.62-0.6-1.5-0.95-2.57-0.95
		c-1.03,0-1.89,0.33-2.53,0.89c-0.71,0.65-1.13,1.6-1.13,2.75c0,1.18,0.43,2.13,1.19,2.78c0.63,0.53,1.46,0.83,2.46,0.83
		c1.03,0,1.89-0.32,2.51-0.89C57.93,32.73,58.35,31.79,58.35,30.64L58.35,30.64z M56.75,30.64c0,1.48-0.76,2.39-2.03,2.39
		c-1.28,0-2.07-0.92-2.07-2.42c0-1.48,0.77-2.42,2.04-2.42C55.94,28.19,56.75,29.14,56.75,30.64L56.75,30.64z M65.15,28.31h-2.63
		v1.77h2.62v1.15h-2.62v2.88h-1.5v-6.99h4.57L65.15,28.31L65.15,28.31z M72.35,28.31h-2.63v1.77h2.62v1.15h-2.62v2.88h-1.5v-6.99
		h4.57L72.35,28.31L72.35,28.31z M79.55,28.31h-2.63v1.67h2.62v1.16h-2.62v1.77h2.92v1.19h-4.42v-6.99h4.57L79.55,28.31L79.55,28.31
		z M86.75,28.31h-2.63v1.67h2.62v1.16h-2.62v1.77h2.91v1.19h-4.42v-6.99h4.57L86.75,28.31L86.75,28.31z M96.82,34.11v-3.42
		c0-0.59,0.02-0.85,0.03-1.25h-0.01c-0.2,0.37-0.37,0.68-0.64,1.08l-1.21,1.8h-0.74l-1.26-1.78c-0.31-0.43-0.52-0.73-0.71-1.09
		h-0.02c0.03,0.4,0.03,0.69,0.03,1.27v3.41h-1.52v-6.99h1.33l1.62,2.25c0.34,0.47,0.73,1.02,0.89,1.31h0.01
		c0.15-0.29,0.45-0.79,0.83-1.34L97,27.12h1.35v6.99H96.82L96.82,34.11z M107.84,34.11l-3.05-7.02h-1.06l-3.02,7.02h1.59l0.65-1.57
		h2.57l0.68,1.57H107.84L107.84,34.11z M105.11,31.39h-1.73l0.51-1.34c0.15-0.39,0.27-0.69,0.34-0.98h0.03
		c0.06,0.27,0.19,0.6,0.34,0.99L105.11,31.39L105.11,31.39z M115.51,34.11l-2.78-3.55c-0.49-0.63-0.8-1.04-1.01-1.37h-0.03
		c0.02,0.32,0.03,0.73,0.03,1.19v3.73h-1.52v-6.99h1.53l2.59,3.29c0.58,0.75,0.91,1.17,1.1,1.5h0.03c-0.03-0.36-0.03-0.72-0.03-1.27
		v-3.52h1.53v6.99H115.51L115.51,34.11z M120.21,27.12h1.52v6.99h-1.52V27.12L120.21,27.12z M131.58,34.11l-3.05-7.02h-1.06
		l-3.02,7.02h1.59l0.66-1.57h2.57l0.68,1.57H131.58L131.58,34.11z M128.84,31.39h-1.73l0.51-1.34c0.15-0.39,0.27-0.69,0.35-0.98
		h0.03c0.06,0.27,0.19,0.6,0.34,0.99L128.84,31.39L128.84,31.39L128.84,31.39z M128.84,31.39"/>
</g>
</svg>
