<?xml version="1.0" encoding="utf-8"?>
<!-- Generator: Adobe Illustrator 16.0.0, SVG Export Plug-In . SVG Version: 6.00 Build 0)  -->
<!DOCTYPE svg PUBLIC "-//W3C//DTD SVG 1.1//EN" "http://www.w3.org/Graphics/SVG/1.1/DTD/svg11.dtd">
<svg version="1.1" id="Layer_1" xmlns="http://www.w3.org/2000/svg" xmlns:xlink="http://www.w3.org/1999/xlink" x="0px" y="0px"
	 width="13px" height="28px" viewBox="0 0 13 28" enable-background="new 0 0 13 28" xml:space="preserve">
<g>
	<g>
		<path fill="#FFFFFF" d="M9.03,17.62c-2.01,0-3.65-1.62-3.65-3.62s1.64-3.62,3.65-3.62c2.01,0,3.64,1.62,3.64,3.62
			S11.04,17.62,9.03,17.62z M9.03,11.38c-1.46,0-2.65,1.17-2.65,2.62s1.19,2.62,2.65,2.62c1.46,0,2.64-1.17,2.64-2.62
			S10.49,11.38,9.03,11.38z"/>
	</g>
	<g>
		<polygon fill="#FFFFFF" points="13,28 7.83,28 0,22.45 0,5.55 7.83,0 13,0 13,1 8.14,1 1,6.07 1,21.93 8.14,27 13,27 		"/>
	</g>
</g>
</svg>
